This is MetaPost, version 2.00 (TeX Live 2018) (kpathsea version 6.3.0)  10 DEC 2020 20:54
**diag
(/usr/share/texlive/texmf-dist/metapost/base/mpost.mp
(/usr/share/texlive/texmf-dist/metapost/base/plain.mp
Preloading the plain mem file, version 1.005) ) (./diag.mp
(/usr/share/texlive/texmf-dist/metapost/base/boxes.mp)
(/usr/share/texlive/texmf-dist/metapost/base/TEX.mp) [1{psfonts.map}{groff.enc}
<uhvr8a.pfb>] [2<uhvr8a.pfb>] [3<uhvr8a.pfb>] )
3 output files written: diag-1.eps .. diag-3.eps

